info:
  name: projects_search_list
  type: http
  seq: 4
  tags:
    - projects

http:
  method: GET
  url: "{{baseUrl}}/construction-work/api/v1/projects/search"
  headers:
    - name: X-Api-Key
      value: "{{apiKey}}"
  params:
    - name: address
      value: ""
      type: query
      disabled: true
    - name: lat
      value: ""
      type: query
      disabled: true
    - name: lon
      value: ""
      type: query
      disabled: true
    - name: page
      value: ""
      type: query
      description: A page number within the paginated result set.
      disabled: true
    - name: page_size
      value: ""
      type: query
      description: Number of results to return per page.
      disabled: true
    - name: text
      value: ""
      type: query
  auth:
    type: apikey
    key: X-Api-Key
    value: "{{apiKey}}"
    placement: header

settings:
  encodeUrl: true
  timeout: 0
  followRedirects: true
  maxRedirects: 5

examples:
  - name: 200 Response
    request:
      url: "{{baseUrl}}/construction-work/api/v1/projects/search"
      method: GET
      headers:
        - name: X-Api-Key
          value: "{{apiKey}}"
      params:
        - name: address
          value: ""
          type: query
          disabled: true
        - name: lat
          value: ""
          type: query
          disabled: true
        - name: lon
          value: ""
          type: query
          disabled: true
        - name: page
          value: ""
          type: query
          description: A page number within the paginated result set.
          disabled: true
        - name: page_size
          value: ""
          type: query
          description: Number of results to return per page.
          disabled: true
        - name: text
          value: ""
          type: query
    response:
      status: 200
      statusText: OK
      headers:
        - name: Content-Type
          value: application/json
      body:
        type: json
        data: |-
          {
            "result": [
              {
                "id": 0,
                "title": "",
                "subtitle": "",
                "image": {
                  "id": 0,
                  "sources": [
                    {
                      "uri": "",
                      "width": 0,
                      "height": 0
                    }
                  ],
                  "aspectRatio": 0,
                  "alternativeText": "",
                  "image_set": 0
                },
                "followed": false,
                "meter": 0,
                "recent_articles": ""
              }
            ],
            "page": {
              "number": 2,
              "size": 10,
              "totalElements": 33,
              "totalPages": 4
            },
            "_links": {
              "self": {
                "href": "http://api.example.com/projects?page=2&page_size=10"
              },
              "next": {
                "href": "http://api.example.com/projects?page=3&page_size=10"
              },
              "previous": {
                "href": "http://api.example.com/projects?page=1&page_size=10"
              }
            }
          }
  - name: 400 Response
    request:
      url: "{{baseUrl}}/construction-work/api/v1/projects/search"
      method: GET
      headers:
        - name: X-Api-Key
          value: "{{apiKey}}"
      params:
        - name: address
          value: ""
          type: query
          disabled: true
        - name: lat
          value: ""
          type: query
          disabled: true
        - name: lon
          value: ""
          type: query
          disabled: true
        - name: page
          value: ""
          type: query
          description: A page number within the paginated result set.
          disabled: true
        - name: page_size
          value: ""
          type: query
          description: Number of results to return per page.
          disabled: true
        - name: text
          value: ""
          type: query
    response:
      status: 400
      statusText: Bad Request
      headers:
        - name: Content-Type
          value: application/json
      body:
        type: json
        data: |-
          {
            "code": "parse_error",
            "detail": ""
          }
  - name: 401 Response
    request:
      url: "{{baseUrl}}/construction-work/api/v1/projects/search"
      method: GET
      headers:
        - name: X-Api-Key
          value: "{{apiKey}}"
      params:
        - name: address
          value: ""
          type: query
          disabled: true
        - name: lat
          value: ""
          type: query
          disabled: true
        - name: lon
          value: ""
          type: query
          disabled: true
        - name: page
          value: ""
          type: query
          description: A page number within the paginated result set.
          disabled: true
        - name: page_size
          value: ""
          type: query
          description: Number of results to return per page.
          disabled: true
        - name: text
          value: ""
          type: query
    response:
      status: 401
      statusText: Unauthorized
      headers:
        - name: Content-Type
          value: application/json
      body:
        type: json
        data: |-
          {
            "code": "API_KEY_INVALID",
            "detail": ""
          }
