info:
  name: projects_list
  type: http
  seq: 1
  tags:
    - projects

http:
  method: GET
  url: "{{baseUrl}}/construction-work/api/v1/projects"
  headers:
    - name: DeviceId
      value: ""
    - name: X-Api-Key
      value: "{{apiKey}}"
  params:
    - name: address
      value: ""
      type: query
      disabled: true
    - name: lat
      value: ""
      type: query
      disabled: true
    - name: lon
      value: ""
      type: query
      disabled: true
    - name: page
      value: ""
      type: query
      description: A page number within the paginated result set.
      disabled: true
    - name: page_size
      value: ""
      type: query
      description: Number of results to return per page.
      disabled: true
  auth:
    type: apikey
    key: X-Api-Key
    value: "{{apiKey}}"
    placement: header

settings:
  encodeUrl: true
  timeout: 0
  followRedirects: true
  maxRedirects: 5

examples:
  - name: 200 Response
    request:
      url: "{{baseUrl}}/construction-work/api/v1/projects"
      method: GET
      headers:
        - name: DeviceId
          value: ""
        - name: X-Api-Key
          value: "{{apiKey}}"
      params:
        - name: address
          value: ""
          type: query
          disabled: true
        - name: lat
          value: ""
          type: query
          disabled: true
        - name: lon
          value: ""
          type: query
          disabled: true
        - name: page
          value: ""
          type: query
          description: A page number within the paginated result set.
          disabled: true
        - name: page_size
          value: ""
          type: query
          description: Number of results to return per page.
          disabled: true
    response:
      status: 200
      statusText: OK
      headers:
        - name: Content-Type
          value: application/json
      body:
        type: json
        data: |-
          {
            "result": [
              {
                "id": 0,
                "title": "",
                "subtitle": "",
                "image": {
                  "id": 0,
                  "sources": [
                    {
                      "uri": "",
                      "width": 0,
                      "height": 0
                    }
                  ],
                  "aspectRatio": 0,
                  "alternativeText": "",
                  "image_set": 0
                },
                "followed": false,
                "meter": 0,
                "recent_articles": ""
              }
            ],
            "page": {
              "number": 2,
              "size": 10,
              "totalElements": 33,
              "totalPages": 4
            },
            "_links": {
              "self": {
                "href": "http://api.example.com/projects?page=2&page_size=10"
              },
              "next": {
                "href": "http://api.example.com/projects?page=3&page_size=10"
              },
              "previous": {
                "href": "http://api.example.com/projects?page=1&page_size=10"
              }
            }
          }
  - name: 400 Response
    request:
      url: "{{baseUrl}}/construction-work/api/v1/projects"
      method: GET
      headers:
        - name: DeviceId
          value: ""
        - name: X-Api-Key
          value: "{{apiKey}}"
      params:
        - name: address
          value: ""
          type: query
          disabled: true
        - name: lat
          value: ""
          type: query
          disabled: true
        - name: lon
          value: ""
          type: query
          disabled: true
        - name: page
          value: ""
          type: query
          description: A page number within the paginated result set.
          disabled: true
        - name: page_size
          value: ""
          type: query
          description: Number of results to return per page.
          disabled: true
    response:
      status: 400
      statusText: Bad Request
      headers:
        - name: Content-Type
          value: application/json
      body:
        type: json
        data: |-
          {
            "code": "MISSING_DEVICE_ID",
            "detail": ""
          }
  - name: 401 Response
    request:
      url: "{{baseUrl}}/construction-work/api/v1/projects"
      method: GET
      headers:
        - name: DeviceId
          value: ""
        - name: X-Api-Key
          value: "{{apiKey}}"
      params:
        - name: address
          value: ""
          type: query
          disabled: true
        - name: lat
          value: ""
          type: query
          disabled: true
        - name: lon
          value: ""
          type: query
          disabled: true
        - name: page
          value: ""
          type: query
          description: A page number within the paginated result set.
          disabled: true
        - name: page_size
          value: ""
          type: query
          description: Number of results to return per page.
          disabled: true
    response:
      status: 401
      statusText: Unauthorized
      headers:
        - name: Content-Type
          value: application/json
      body:
        type: json
        data: |-
          {
            "code": "API_KEY_INVALID",
            "detail": ""
          }

docs: |-
  API endpoint that lists active, non-hidden projects.

  Supports filtering by location (lat/lon coordinates or address) and includes
  information about whether the requesting device follows each project.
  Projects can be paginated and include extended project details.

  The projects are ordered based on the following criteria:

  Followed projects are on top:
  - For projects with content: sorted by most recent content date
  - For projects without content:
      - With device location: sorted by shortest distance to project
      - Without device location: sorted by newest project publication date

  Non-followed projects are ordered after the followed projects:
  - With device location: sorted by shortest distance to project
  - Without device location: sorted by newest project publication date

  Required headers:
      - Device-ID: Unique identifier for the requesting device

  Query parameters:
      - lat (str, optional): Latitude coordinate for location filtering
      - lon (str, optional): Longitude coordinate for location filtering
      - address (str, optional): Address string for location filtering (will be geocoded)

  Returns:
      Paginated list of projects with extended details including follow status
